…
```r
schools <- read_csv('data/cmm/5.1.txt')
schools_to_sample <- sample(schools$schoolid %>% unique, 20)
schools %>%
  filter(schoolid %in% schools_to_sample) %>%  
  group_by(schoolid, cohort90) %>%
  summarise(score=mean(score))
```

```
## # A tibble: 113 x 3
## # Groups:   schoolid [20]
##    schoolid cohort90 score
##       <dbl>    <dbl> <dbl>
##  1       40       -6  40.5
##  2       40       -4  30.2
##  3       40       -2  28.4
##  4       40        0  39.4
##  5       40        6  35  
##  6       40        8  39.4
##  7       51       -6   4.5
##  8       51       -4  16.8
##  9       51       -2  16  
## 10       51        0  26.2
## # … with 103 more rows
```
…
